key,value
Pulse,P1
P1 counts,P1
T1 F,T1
P2 counts,P2
T2 F,T2
P3 counts,P3
T3 F,T3
P4 counts,P4
T4 F,T4
Temperature2,T2
Temperature3,T3
Temperature4,T4
Temperature5,T5
Temperature6,T6
Relative Humidity %,RH
Relative Humidity1 %,RH
Relative Humidity9 %,RH
Voltage1 V,V
Signal Strength1 dBm,Q
Pulse1 Count,P1
Temperature1,T1
Pulse2 Count,P2
Pulse3 Count,P3
Pulse4 Count,P4
Pulse5 Count,P5
Field Label 1,NAN
