fulcrum_id,created_at,updated_at,created_by,updated_by,system_created_at,system_updated_at,version,status,project,assigned_to,latitude,longitude,geometry,client,project_label,site_label,homeowner_name,phone_number,email,address,town,state,site_photo,site_photo_caption,site_photo_url
977d2bb3-7886-4cd9-a47c-4418121ac1e9,2022-02-22 21:14:13 UTC,2022-03-29 22:47:31 UTC,ajackson@ridgelineanalytics.com,dkorn@ridgelineanalytics.com,2022-02-22 21:40:44 UTC,2022-03-29 22:47:33 UTC,21,,,,44.3889064761,-71.1774388312,POINT (-71.1774388312 44.3889064761),EMT,Whole Home HP,1,Richard Marble,,richardin52@hotmail.com,13 Marble Ln,New Vineyard,ME,3bb2448f-9225-4d4f-976f-72e74cd68555,,https://web.fulcrumapp.com/photos/view?photos=3bb2448f-9225-4d4f-976f-72e74cd68555
42cbba6e-2fcb-4544-973d-75a6581c80f3,2022-02-23 15:41:29 UTC,2022-03-14 21:12:44 UTC,ajackson@ridgelineanalytics.com,wrambur@ridgelineanalytics.com,2022-02-23 15:55:44 UTC,2022-03-14 21:12:50 UTC,21,,,,44.0696057198,-68.6032116786,POINT (-68.6032116786 44.0696057198),EMT,Isle Au Haut,971,Bryan Carroll,(207) 466-7442,manager@iahpower.org,Bryans Old House,Isle Au Haut,ME,,,
d9994688-c44c-41d2-8db4-4670b6bb394b,2022-02-24 23:17:09 UTC,2022-03-03 17:46:07 UTC,dkorn@ridgelineanalytics.com,ajackson@ridgelineanalytics.com,2022-02-24 23:17:11 UTC,2022-03-03 17:46:12 UTC,14,,,,43.888904,-70.098586,POINT (-70.098586 43.888904),EMT,Whole Home HP,2,Janet Desrosiers,207 865 4531,Janetleefk22@gmail.com,5 Juniper Lane,Freeport,Maine,"7d6926e9-8dbe-46e0-a277-f032b27da493,1b499ae6-b9eb-45f2-94d9-4043b75a2d60",",",https://web.fulcrumapp.com/photos/view?photos=7d6926e9-8dbe-46e0-a277-f032b27da493%2C1b499ae6-b9eb-45f2-94d9-4043b75a2d60
7d6a2442-0393-4ee1-94ae-d162e691fc87,2022-03-01 18:23:13 UTC,2022-03-31 19:13:41 UTC,dkorn@ridgelineanalytics.com,ajackson@ridgelineanalytics.com,2022-03-01 18:23:15 UTC,2022-03-31 19:13:49 UTC,48,,,,44.396228,-68.222372,POINT (-68.222372 44.396228),NEEP,VRF,991,David Gibson - COA,,,105 Eden St,Bar Harbor,ME,,,
a40ec554-d6b7-4861-ac38-83e1454ac2fd,2022-03-02 14:07:10 UTC,2022-03-02 22:22:32 UTC,dkorn@ridgelineanalytics.com,ajackson@ridgelineanalytics.com,2022-03-02 14:07:11 UTC,2022-03-02 22:22:36 UTC,16,,,,43.890264,-70.099895,POINT (-70.099895 43.890264),EMT,Whole Home HP,3,Derek Cloutier,,,11 La Joie,Freeport,ME,c03000f4-ccf6-401d-ac61-6c68f80d3226,,https://web.fulcrumapp.com/photos/view?photos=c03000f4-ccf6-401d-ac61-6c68f80d3226
0a967be3-bc60-4cbe-8b31-ca8d07b5da0a,2022-03-02 18:53:17 UTC,2022-03-23 19:59:51 UTC,wrambur@ridgelineanalytics.com,wrambur@ridgelineanalytics.com,2022-03-02 19:23:04 UTC,2022-03-23 20:00:11 UTC,13,,,,45.0178901102,-69.2957107723,POINT (-69.2957107723 45.0178901102),EMT,Whole Home HP,4,Catherine and George Hardy,207-944-6299,,85 Main St,Dexter,Maine,,,
b22c74bc-d091-4696-9002-0e3f16606e6c,2022-03-02 20:35:43 UTC,2022-03-25 16:25:29 UTC,wrambur@ridgelineanalytics.com,wrambur@ridgelineanalytics.com,2022-03-02 20:38:12 UTC,2022-03-25 16:25:35 UTC,6,,,,45.01944861402382,-69.29414335638285,POINT (-69.29414335638285 45.01944861402382),EMT,Whole Home HP,5,Mike Hardy,207-615-9799,,68 Maine St,Dexter,Maine,,,
dbbd6e8d-06e6-4bc2-8332-672ef75d7d86,2022-03-02 23:05:25 UTC,2022-03-23 01:20:37 UTC,ajackson@ridgelineanalytics.com,dkorn@ridgelineanalytics.com,2022-03-02 23:13:30 UTC,2022-03-23 01:20:38 UTC,10,,,,44.0765726968,-68.6327669397,POINT (-68.6327669397 44.0765726968),EMT,Isle Au Haut,972,Bryan Carrol,(207) 335-5001,,Town Hall,Isle Au Haut,ME,f0a686d1-2a23-4667-942d-22213cf96e4a,,https://web.fulcrumapp.com/photos/view?photos=f0a686d1-2a23-4667-942d-22213cf96e4a
cbc5e323-cc13-42c0-8993-d0aa04769908,2022-03-07 16:14:58 UTC,2022-03-25 14:45:50 UTC,wrambur@ridgelineanalytics.com,wrambur@ridgelineanalytics.com,2022-03-07 16:46:05 UTC,2022-03-25 14:46:11 UTC,9,,,,44.0767668345,-68.6312890425,POINT (-68.6312890425 44.0767668345),EMT,Isle Au Haut,973,Bryan Carroll,,,School,Isle Au Haut,ME,,,
17a4a2ba-babd-4474-b613-8ae79e4b8d8e,2022-03-07 16:45:27 UTC,2022-03-25 14:45:31 UTC,wrambur@ridgelineanalytics.com,wrambur@ridgelineanalytics.com,2022-03-07 16:46:07 UTC,2022-03-25 14:46:09 UTC,9,,,,44.0743867976,-68.6364496127,POINT (-68.6364496127 44.0743867976),EMT,Isle Au Haut,974,Bryan Carroll,,,Store,Isle Au Haut,ME,,,
cfaaa8b2-08b1-40a5-b95b-321860f7d099,2022-03-23 01:23:11 UTC,2022-03-25 03:17:13 UTC,dkorn@ridgelineanalytics.com,dkorn@ridgelineanalytics.com,2022-03-23 01:23:13 UTC,2022-03-25 03:17:15 UTC,8,,,,43.888944,-70.100754,POINT (-70.100754 43.888944),EMT,Whole Home HP,6,Marianna Casagranda,,,2 Lajoie,Freeport,ME,7d022c9a-2872-4104-a841-7b53d55d610c,,https://web.fulcrumapp.com/photos/view?photos=7d022c9a-2872-4104-a841-7b53d55d610c
1e9761d8-1c1c-4954-bc61-43b51a3d6353,2022-03-25 03:18:29 UTC,2022-03-25 03:34:44 UTC,dkorn@ridgelineanalytics.com,dkorn@ridgelineanalytics.com,2022-03-25 03:18:30 UTC,2022-03-25 03:34:47 UTC,5,,,,43.889169,-70.100916,POINT (-70.100916 43.889169),EMT,Whole Home HP,7,Michelle,,,1 LaJoie,Freeport,Maine,,,
2da700ff-0d0a-449f-ad5f-c3027d5b0f9d,2022-03-28 20:39:04 UTC,2022-03-28 20:56:23 UTC,dkorn@ridgelineanalytics.com,dkorn@ridgelineanalytics.com,2022-03-28 20:39:05 UTC,2022-03-28 20:56:25 UTC,5,,,,44.738767,-70.137174,POINT (-70.137174 44.738767),EMT,Whole Home HP,9,Richard Marble Tenant,,,851 Holley,New Vineyard,Maine,,,
88bb0c50-5377-4a28-9c18-c891ab2847f4,2022-03-30 18:59:15 UTC,2022-03-31 17:55:54 UTC,wrambur@ridgelineanalytics.com,wrambur@ridgelineanalytics.com,2022-03-30 18:59:16 UTC,2022-03-31 17:55:56 UTC,16,,,,44.502446,-73.16397,POINT (-73.16397 44.502446),NEEP,VRF,992,Camp Johnson,,,789 Vermont National Guard Rd,Colchester ,VT,,,
fe136ab9-21d9-4a4b-befd-3e0ace294794,2022-03-31 13:02:04 UTC,2022-03-31 17:56:23 UTC,wrambur@ridgelineanalytics.com,wrambur@ridgelineanalytics.com,2022-03-31 13:02:05 UTC,2022-03-31 17:56:25 UTC,8,,,,44.667413,-74.998835,POINT (-74.998835 44.667413),NEEP,VRF,993,Clarkson University ,,,8 Clarkson Ave,Potsdam,NY,,,
