fulcrum_id,fulcrum_parent_id,fulcrum_record_id,version,latitude,longitude,geometry,created_at,updated_at,created_by,updated_by,equipment_label,equipment_description,area_served,area_served_other,context_photo,context_photo_caption,context_photo_url,nameplate_photo,nameplate_photo_caption,nameplate_photo_url
ca357233-ec64-4c23-a06d-24dcba6c5a4f,977d2bb3-7886-4cd9-a47c-4418121ac1e9,977d2bb3-7886-4cd9-a47c-4418121ac1e9,7,44.38893971479647,-71.17742466048563,POINT (-71.17742466048563 44.38893971479647),2022-02-22 22:03:15 UTC,2022-02-25 21:07:04 UTC,ajackson@ridgelineanalytics.com,ajackson@ridgelineanalytics.com,1,Outdoor Heat Pump,"Living Room,Office",,8f3494ed-7020-42bc-b083-e3a832f33775,,https://web.fulcrumapp.com/photos/view?photos=8f3494ed-7020-42bc-b083-e3a832f33775,5d387a1c-c65f-4d31-8a27-26f7c605a09e,,https://web.fulcrumapp.com/photos/view?photos=5d387a1c-c65f-4d31-8a27-26f7c605a09e
487d4e21-2caf-4286-b8fb-37fee5f07fd8,977d2bb3-7886-4cd9-a47c-4418121ac1e9,977d2bb3-7886-4cd9-a47c-4418121ac1e9,4,44.38895957590308,-71.17742695543514,POINT (-71.17742695543514 44.38895957590308),2022-02-22 22:06:36 UTC,2022-02-25 21:07:11 UTC,ajackson@ridgelineanalytics.com,ajackson@ridgelineanalytics.com,1A,Indoor Heat Pump,Living Room,,71441faa-f7a4-441e-aa13-94fde1a3561f,,https://web.fulcrumapp.com/photos/view?photos=71441faa-f7a4-441e-aa13-94fde1a3561f,10714c58-88b1-4861-a810-daacaffef21a,,https://web.fulcrumapp.com/photos/view?photos=10714c58-88b1-4861-a810-daacaffef21a
3683631b-df3a-4aa1-8a16-a51b4d07ade2,977d2bb3-7886-4cd9-a47c-4418121ac1e9,977d2bb3-7886-4cd9-a47c-4418121ac1e9,5,44.388941531110916,-71.17743537767899,POINT (-71.17743537767899 44.388941531110916),2022-02-22 22:08:45 UTC,2022-02-25 21:07:14 UTC,ajackson@ridgelineanalytics.com,ajackson@ridgelineanalytics.com,1B,Indoor Heat Pump,Office,,f01de8e0-01fd-4dba-9cea-bc59b3caf675,,https://web.fulcrumapp.com/photos/view?photos=f01de8e0-01fd-4dba-9cea-bc59b3caf675,25539854-c23b-4607-b894-bb47a63d0fb0,,https://web.fulcrumapp.com/photos/view?photos=25539854-c23b-4607-b894-bb47a63d0fb0
0c2ba55c-a971-4958-afa4-4c3d637c3412,42cbba6e-2fcb-4544-973d-75a6581c80f3,42cbba6e-2fcb-4544-973d-75a6581c80f3,3,44.38891316818223,-71.17745091877937,POINT (-71.17745091877937 44.38891316818223),2022-02-23 15:55:15 UTC,2022-02-25 21:08:38 UTC,ajackson@ridgelineanalytics.com,ajackson@ridgelineanalytics.com,1,Outdoor Heat Pump,Unknown,,,,,,,
0c53f9aa-bf08-46bb-8b3f-6b273cbbcf72,d9994688-c44c-41d2-8db4-4670b6bb394b,d9994688-c44c-41d2-8db4-4670b6bb394b,3,42.43739790195417,-71.49754135155872,POINT (-71.49754135155872 42.43739790195417),2022-02-25 00:08:35 UTC,2022-02-25 13:56:11 UTC,dkorn@ridgelineanalytics.com,dkorn@ridgelineanalytics.com,Heat Pump 1,Heat Pump Outdoor,Whole Home,,4a4b1f78-50bd-4472-b6fc-67309cb78415,3T unit at install,https://web.fulcrumapp.com/photos/view?photos=4a4b1f78-50bd-4472-b6fc-67309cb78415,65e3030f-e100-4f79-8808-5626e0b9ea8f,Actually from 4 Katie La,https://web.fulcrumapp.com/photos/view?photos=65e3030f-e100-4f79-8808-5626e0b9ea8f
ad575cf0-bac9-4a11-b186-6ab6c7faaf6f,7d6a2442-0393-4ee1-94ae-d162e691fc87,7d6a2442-0393-4ee1-94ae-d162e691fc87,2,,,POINT (0.0 0.0),2022-03-01 21:19:58 UTC,2022-03-01 21:21:14 UTC,dkorn@ridgelineanalytics.com,dkorn@ridgelineanalytics.com,1,FXAQ07PVJU,Bathroom,,"2766ea52-2a95-4eb9-8325-4ff6474a454e,1054d464-083a-46b1-9fd8-9ee5122e210d",",",https://web.fulcrumapp.com/photos/view?photos=2766ea52-2a95-4eb9-8325-4ff6474a454e%2C1054d464-083a-46b1-9fd8-9ee5122e210d,740a0e88-f332-4747-ba7d-d843d6d0b3fb,,https://web.fulcrumapp.com/photos/view?photos=740a0e88-f332-4747-ba7d-d843d6d0b3fb
384c2068-3ffe-439d-85c5-192dff31652c,7d6a2442-0393-4ee1-94ae-d162e691fc87,7d6a2442-0393-4ee1-94ae-d162e691fc87,1,,,POINT (0.0 0.0),2022-03-01 21:28:42 UTC,2022-03-01 21:29:27 UTC,dkorn@ridgelineanalytics.com,dkorn@ridgelineanalytics.com,2,FXAQ09PVJU,,104 S. Wall,12949564-9547-4888-b21f-394b9bdbe7dd,,https://web.fulcrumapp.com/photos/view?photos=12949564-9547-4888-b21f-394b9bdbe7dd,3674785e-06be-4313-99eb-fe6b71914b91,,https://web.fulcrumapp.com/photos/view?photos=3674785e-06be-4313-99eb-fe6b71914b91
2801a0b2-c33f-495c-9e9a-b3e045b6537a,a40ec554-d6b7-4861-ac38-83e1454ac2fd,a40ec554-d6b7-4861-ac38-83e1454ac2fd,3,43.89026,-70.099892,POINT (-70.099892 43.89026),2022-03-02 14:10:58 UTC,2022-03-02 14:59:00 UTC,dkorn@ridgelineanalytics.com,dkorn@ridgelineanalytics.com,1,Daikin ,Whole Home,,"db572b55-3439-4add-b265-9cd4a02fb047,4c9dacfa-e5dd-4b56-9d02-b11035f98691",",",https://web.fulcrumapp.com/photos/view?photos=db572b55-3439-4add-b265-9cd4a02fb047%2C4c9dacfa-e5dd-4b56-9d02-b11035f98691,,,
dfd81154-465e-4fee-b226-b0f2f764d628,0a967be3-bc60-4cbe-8b31-ca8d07b5da0a,0a967be3-bc60-4cbe-8b31-ca8d07b5da0a,1,,,POINT (0.0 0.0),2022-03-02 20:17:07 UTC,2022-03-02 20:17:07 UTC,wrambur@ridgelineanalytics.com,wrambur@ridgelineanalytics.com,1,Outdoor Heat Pump,Bedroom,,,,,,,
4a5cfab5-f0c6-4597-a61c-873fe0e34c4e,0a967be3-bc60-4cbe-8b31-ca8d07b5da0a,0a967be3-bc60-4cbe-8b31-ca8d07b5da0a,1,,,POINT (0.0 0.0),2022-03-02 20:17:28 UTC,2022-03-02 20:17:28 UTC,wrambur@ridgelineanalytics.com,wrambur@ridgelineanalytics.com,1a,Indoor Heat Pump,Bedroom,,,,,,,
16826518-1b2a-4ccc-b1fd-64789de27374,0a967be3-bc60-4cbe-8b31-ca8d07b5da0a,0a967be3-bc60-4cbe-8b31-ca8d07b5da0a,1,,,POINT (0.0 0.0),2022-03-02 20:18:00 UTC,2022-03-02 20:18:00 UTC,wrambur@ridgelineanalytics.com,wrambur@ridgelineanalytics.com,2,Outdoor Heat Pump,Living Room,,,,,,,
df1037ca-cf6c-4682-92e9-846878eba17e,0a967be3-bc60-4cbe-8b31-ca8d07b5da0a,0a967be3-bc60-4cbe-8b31-ca8d07b5da0a,1,,,POINT (0.0 0.0),2022-03-02 20:18:17 UTC,2022-03-02 20:18:17 UTC,wrambur@ridgelineanalytics.com,wrambur@ridgelineanalytics.com,2a,Indoor Heat Pump,Living Room,,,,,,,
0320fd1d-2482-4fa9-a5f4-cb8a238bdaed,0a967be3-bc60-4cbe-8b31-ca8d07b5da0a,0a967be3-bc60-4cbe-8b31-ca8d07b5da0a,1,,,POINT (0.0 0.0),2022-03-02 20:18:41 UTC,2022-03-02 20:18:41 UTC,wrambur@ridgelineanalytics.com,wrambur@ridgelineanalytics.com,3a,Indoor Heat Pump,Kitchen,,,,,,,
d83a3aca-8198-4a26-9b5b-000a90177d32,0a967be3-bc60-4cbe-8b31-ca8d07b5da0a,0a967be3-bc60-4cbe-8b31-ca8d07b5da0a,1,,,POINT (0.0 0.0),2022-03-02 21:31:19 UTC,2022-03-02 21:31:19 UTC,wrambur@ridgelineanalytics.com,wrambur@ridgelineanalytics.com,3,Outdoor Heat Pump (Unmetered),,,,,,,,
75d52371-5cf1-4407-ab10-203386e395d9,b22c74bc-d091-4696-9002-0e3f16606e6c,b22c74bc-d091-4696-9002-0e3f16606e6c,1,,,POINT (0.0 0.0),2022-03-02 21:25:56 UTC,2022-03-02 21:25:56 UTC,wrambur@ridgelineanalytics.com,wrambur@ridgelineanalytics.com,1,Outdoor Heat Pump,,,,,,,,
03fffd72-f966-44b7-aaec-208d097ba662,b22c74bc-d091-4696-9002-0e3f16606e6c,b22c74bc-d091-4696-9002-0e3f16606e6c,1,,,POINT (0.0 0.0),2022-03-02 21:26:06 UTC,2022-03-02 21:26:06 UTC,wrambur@ridgelineanalytics.com,wrambur@ridgelineanalytics.com,1a,Indoor Heat Pump,,,,,,,,
ee8f4795-a045-4a9c-a8dd-ee4c1804ee07,b22c74bc-d091-4696-9002-0e3f16606e6c,b22c74bc-d091-4696-9002-0e3f16606e6c,1,,,POINT (0.0 0.0),2022-03-02 21:26:16 UTC,2022-03-02 21:26:16 UTC,wrambur@ridgelineanalytics.com,wrambur@ridgelineanalytics.com,2,Outdoor Heat Pump,,,,,,,,
04b3881f-0d75-4835-9b2d-ef7694863897,b22c74bc-d091-4696-9002-0e3f16606e6c,b22c74bc-d091-4696-9002-0e3f16606e6c,1,,,POINT (0.0 0.0),2022-03-02 21:26:24 UTC,2022-03-02 21:26:24 UTC,wrambur@ridgelineanalytics.com,wrambur@ridgelineanalytics.com,2a,Indoor Heat Pump,,,,,,,,
080b88a5-6492-431c-b065-5202c88ef349,b22c74bc-d091-4696-9002-0e3f16606e6c,b22c74bc-d091-4696-9002-0e3f16606e6c,1,,,POINT (0.0 0.0),2022-03-02 21:26:41 UTC,2022-03-02 21:26:41 UTC,wrambur@ridgelineanalytics.com,wrambur@ridgelineanalytics.com,3,Outdoor Heat Pump,,,,,,,,
e0b8bc12-9500-459a-918b-a4ae88e8eaf1,b22c74bc-d091-4696-9002-0e3f16606e6c,b22c74bc-d091-4696-9002-0e3f16606e6c,1,,,POINT (0.0 0.0),2022-03-02 21:29:58 UTC,2022-03-02 21:29:58 UTC,wrambur@ridgelineanalytics.com,wrambur@ridgelineanalytics.com,3a,Indoor Heat Pump,,,,,,,,
13630dc7-54d5-46e0-b714-b0fb5bc0f823,b22c74bc-d091-4696-9002-0e3f16606e6c,b22c74bc-d091-4696-9002-0e3f16606e6c,1,,,POINT (0.0 0.0),2022-03-02 21:30:16 UTC,2022-03-02 21:30:16 UTC,wrambur@ridgelineanalytics.com,wrambur@ridgelineanalytics.com,4,Outdoor Heat Pump (Unmetered),,,,,,,,
bcabbb34-ef02-4c9e-bb9a-e53d266b5f58,b22c74bc-d091-4696-9002-0e3f16606e6c,b22c74bc-d091-4696-9002-0e3f16606e6c,1,,,POINT (0.0 0.0),2022-03-02 21:30:28 UTC,2022-03-02 21:30:28 UTC,wrambur@ridgelineanalytics.com,wrambur@ridgelineanalytics.com,4a ,Indoor Heat Pump,,,,,,,,
fbbca473-4d7a-46e2-b38f-6d5e198a0cfa,dbbd6e8d-06e6-4bc2-8332-672ef75d7d86,dbbd6e8d-06e6-4bc2-8332-672ef75d7d86,1,44.38893587332652,-71.17742707959485,POINT (-71.17742707959485 44.38893587332652),2022-03-02 23:09:31 UTC,2022-03-02 23:09:58 UTC,ajackson@ridgelineanalytics.com,ajackson@ridgelineanalytics.com,1,Outdoor Heat Pump,Unknown,,,,,,,
095afe4c-0105-4544-8ba1-68f281db7de2,dbbd6e8d-06e6-4bc2-8332-672ef75d7d86,dbbd6e8d-06e6-4bc2-8332-672ef75d7d86,1,44.388926259190846,-71.17742407609937,POINT (-71.17742407609937 44.388926259190846),2022-03-02 23:09:59 UTC,2022-03-02 23:10:16 UTC,ajackson@ridgelineanalytics.com,ajackson@ridgelineanalytics.com,2,Outdoor Heat Pump,Unknown,,,,,,,
1a166969-6509-4daf-be60-6efaa9058cc0,cbc5e323-cc13-42c0-8993-d0aa04769908,cbc5e323-cc13-42c0-8993-d0aa04769908,1,42.42584046898724,-71.08109685343157,POINT (-71.08109685343157 42.42584046898724),2022-03-07 16:40:55 UTC,2022-03-07 16:42:07 UTC,wrambur@ridgelineanalytics.com,wrambur@ridgelineanalytics.com,1,Outdoor Heat Pump,,Upstairs ,,,,,,
108d21d4-0981-4e14-abea-fed7c7caafec,cbc5e323-cc13-42c0-8993-d0aa04769908,cbc5e323-cc13-42c0-8993-d0aa04769908,1,42.42584892072593,-71.08107868751419,POINT (-71.08107868751419 42.42584892072593),2022-03-07 16:41:28 UTC,2022-03-07 16:42:23 UTC,wrambur@ridgelineanalytics.com,wrambur@ridgelineanalytics.com,2,Outdoor Heat Pump,,Downstairs ,,,,,,
62d11f3b-0c2e-4099-adb8-757e9110cf20,cbc5e323-cc13-42c0-8993-d0aa04769908,cbc5e323-cc13-42c0-8993-d0aa04769908,1,42.42585881849942,-71.08107833783889,POINT (-71.08107833783889 42.42585881849942),2022-03-09 16:12:04 UTC,2022-03-09 16:12:22 UTC,wrambur@ridgelineanalytics.com,wrambur@ridgelineanalytics.com,1a,Indoor Heat Pump,,Upstairs,,,,,,
09de99fd-acbb-4d84-bffe-8fe05694fd82,cbc5e323-cc13-42c0-8993-d0aa04769908,cbc5e323-cc13-42c0-8993-d0aa04769908,1,42.425891465547714,-71.08106786858296,POINT (-71.08106786858296 42.425891465547714),2022-03-09 16:12:24 UTC,2022-03-09 16:12:49 UTC,wrambur@ridgelineanalytics.com,wrambur@ridgelineanalytics.com,2a,Indoor Heat Pump,,Downstairs,,,,,,
efd77a6c-44ba-48c2-8384-7179081779ec,17a4a2ba-babd-4474-b613-8ae79e4b8d8e,17a4a2ba-babd-4474-b613-8ae79e4b8d8e,1,42.42587068264232,-71.08109832949468,POINT (-71.08109832949468 42.42587068264232),2022-03-09 16:07:42 UTC,2022-03-09 16:11:19 UTC,wrambur@ridgelineanalytics.com,wrambur@ridgelineanalytics.com,1,Outdoor Heat Pump,,Whole Store,,,,,,
2079c8a1-15c4-4c6f-9c59-76da53f867be,17a4a2ba-babd-4474-b613-8ae79e4b8d8e,17a4a2ba-babd-4474-b613-8ae79e4b8d8e,1,42.425924695621546,-71.08106112525977,POINT (-71.08106112525977 42.425924695621546),2022-03-09 16:11:30 UTC,2022-03-09 16:11:51 UTC,wrambur@ridgelineanalytics.com,wrambur@ridgelineanalytics.com,1a,Indoor Heat Pump,,Whole Store,,,,,,
e696985a-71d4-428f-8e2b-03482603393f,cfaaa8b2-08b1-40a5-b95b-321860f7d099,cfaaa8b2-08b1-40a5-b95b-321860f7d099,1,,,POINT (0.0 0.0),2022-03-23 01:33:36 UTC,2022-03-23 01:33:36 UTC,dkorn@ridgelineanalytics.com,dkorn@ridgelineanalytics.com,HP 1,Daikin 36000 BTUH ducted unit,Whole Home,,"3e69ab5c-a2d2-4a97-a07b-7b822fb0a529,ac73f4d9-b2b0-4e2e-98c0-48dd72ea9064",",",https://web.fulcrumapp.com/photos/view?photos=3e69ab5c-a2d2-4a97-a07b-7b822fb0a529%2Cac73f4d9-b2b0-4e2e-98c0-48dd72ea9064,,,
8b2c101c-709c-44ee-88b9-87d790051751,2da700ff-0d0a-449f-ad5f-c3027d5b0f9d,2da700ff-0d0a-449f-ad5f-c3027d5b0f9d,1,,,POINT (0.0 0.0),2022-03-28 20:55:27 UTC,2022-03-28 20:55:27 UTC,dkorn@ridgelineanalytics.com,dkorn@ridgelineanalytics.com,1,New LG HP,Bedroom,,,,,,,
8de82423-bc3b-4999-97a8-af4c7e6a1f20,2da700ff-0d0a-449f-ad5f-c3027d5b0f9d,2da700ff-0d0a-449f-ad5f-c3027d5b0f9d,1,,,POINT (0.0 0.0),2022-03-28 20:56:01 UTC,2022-03-28 20:56:01 UTC,dkorn@ridgelineanalytics.com,dkorn@ridgelineanalytics.com,1A,North BR HP,Bedroom,,,,,,,
99b468a1-c94f-4e0c-8208-1386c1da1efc,88bb0c50-5377-4a28-9c18-c891ab2847f4,88bb0c50-5377-4a28-9c18-c891ab2847f4,3,,,POINT (0.0 0.0),2022-03-31 13:53:03 UTC,2022-03-31 17:31:40 UTC,wrambur@ridgelineanalytics.com,wrambur@ridgelineanalytics.com,Outdoor Unit Left,Outdoor Heat Pump,,Whole Building,,,,,,
ee04e4cd-96ff-49e4-9c8b-6cbde5f075ad,88bb0c50-5377-4a28-9c18-c891ab2847f4,88bb0c50-5377-4a28-9c18-c891ab2847f4,3,,,POINT (0.0 0.0),2022-03-31 13:53:55 UTC,2022-03-31 17:31:46 UTC,wrambur@ridgelineanalytics.com,wrambur@ridgelineanalytics.com,Outdoor Unit Right,Outdoor Heat Pump,,Whole Building,,,,,,
7f4c6fc0-4b8a-41c6-b9ee-7101f1a86a54,88bb0c50-5377-4a28-9c18-c891ab2847f4,88bb0c50-5377-4a28-9c18-c891ab2847f4,1,,,POINT (0.0 0.0),2022-03-31 13:54:15 UTC,2022-03-31 13:54:15 UTC,wrambur@ridgelineanalytics.com,wrambur@ridgelineanalytics.com,FC2-13,Indoor Heat Pump,,FC2-13,,,,,,
f7551cbd-482b-4153-a2d6-214612429a7b,88bb0c50-5377-4a28-9c18-c891ab2847f4,88bb0c50-5377-4a28-9c18-c891ab2847f4,1,,,POINT (0.0 0.0),2022-03-31 13:54:32 UTC,2022-03-31 13:54:32 UTC,wrambur@ridgelineanalytics.com,wrambur@ridgelineanalytics.com,FC2-16,Indoor Heat Pump,,FC2-16,,,,,,
0ed70a4d-cec6-49d1-8421-bc50ab922f13,88bb0c50-5377-4a28-9c18-c891ab2847f4,88bb0c50-5377-4a28-9c18-c891ab2847f4,1,,,POINT (0.0 0.0),2022-03-31 14:21:21 UTC,2022-03-31 14:23:57 UTC,wrambur@ridgelineanalytics.com,wrambur@ridgelineanalytics.com,FC2-15,Indoor Heat Pump,,FC2-15,,,,,,
582d981b-6cad-4814-bcb6-b9b6d2f9cb84,88bb0c50-5377-4a28-9c18-c891ab2847f4,88bb0c50-5377-4a28-9c18-c891ab2847f4,1,,,POINT (0.0 0.0),2022-03-31 14:23:26 UTC,2022-03-31 14:23:26 UTC,wrambur@ridgelineanalytics.com,wrambur@ridgelineanalytics.com,FC2-3,Indoor Heat Pump,,FC2-3,,,,,,
a17773fd-acb7-4f36-bbf5-d0d15e04efab,88bb0c50-5377-4a28-9c18-c891ab2847f4,88bb0c50-5377-4a28-9c18-c891ab2847f4,1,,,POINT (0.0 0.0),2022-03-31 14:23:47 UTC,2022-03-31 14:23:47 UTC,wrambur@ridgelineanalytics.com,wrambur@ridgelineanalytics.com,FC2-4,Indoor Heat Pump,,FC2-4,,,,,,
79205b18-d613-466e-bae9-ca568c4c2a1d,88bb0c50-5377-4a28-9c18-c891ab2847f4,88bb0c50-5377-4a28-9c18-c891ab2847f4,1,,,POINT (0.0 0.0),2022-03-31 14:26:20 UTC,2022-03-31 14:26:20 UTC,wrambur@ridgelineanalytics.com,wrambur@ridgelineanalytics.com,FC2-12,Indoor Heat Pump,,FC2-12,,,,,,
be395db2-da7a-4ecd-9287-2d4edf01f786,88bb0c50-5377-4a28-9c18-c891ab2847f4,88bb0c50-5377-4a28-9c18-c891ab2847f4,1,,,POINT (0.0 0.0),2022-03-31 14:26:35 UTC,2022-03-31 14:26:35 UTC,wrambur@ridgelineanalytics.com,wrambur@ridgelineanalytics.com,FC2-11,Indoor Heat Pump,,FC2-11,,,,,,
bef0fe16-86e2-4311-b602-6e4f36839420,fe136ab9-21d9-4a4b-befd-3e0ace294794,fe136ab9-21d9-4a4b-befd-3e0ace294794,1,42.39276229723813,-71.18119792290014,POINT (-71.18119792290014 42.39276229723813),2022-03-31 16:48:52 UTC,2022-03-31 16:50:16 UTC,ajackson@ridgelineanalytics.com,ajackson@ridgelineanalytics.com,Staff Lounge,Indoor Heat Pump,,,,,,,,
84affeb5-b2ed-43a6-8ffd-89fdff0db01c,fe136ab9-21d9-4a4b-befd-3e0ace294794,fe136ab9-21d9-4a4b-befd-3e0ace294794,1,42.392772189480155,-71.18118880174549,POINT (-71.18118880174549 42.392772189480155),2022-03-31 16:50:18 UTC,2022-03-31 16:50:34 UTC,ajackson@ridgelineanalytics.com,ajackson@ridgelineanalytics.com,Conference Room,Indoor Heat Pump,,,,,,,,
7ec79de0-43a4-4cd8-b354-222bffa5f335,fe136ab9-21d9-4a4b-befd-3e0ace294794,fe136ab9-21d9-4a4b-befd-3e0ace294794,1,42.39275633862322,-71.18119235587639,POINT (-71.18119235587639 42.39275633862322),2022-03-31 16:50:36 UTC,2022-03-31 16:50:47 UTC,ajackson@ridgelineanalytics.com,ajackson@ridgelineanalytics.com,FC1,Indoor Heat Pump,,,,,,,,
1b783540-eda2-49e8-bfff-20d1499e770d,fe136ab9-21d9-4a4b-befd-3e0ace294794,fe136ab9-21d9-4a4b-befd-3e0ace294794,1,42.392758031859785,-71.18119124592631,POINT (-71.18119124592631 42.392758031859785),2022-03-31 16:50:49 UTC,2022-03-31 16:51:00 UTC,ajackson@ridgelineanalytics.com,ajackson@ridgelineanalytics.com,FC2,Indoor Heat Pump,,,,,,,,
7d289de8-7f4e-4c32-8994-35d33670f71c,fe136ab9-21d9-4a4b-befd-3e0ace294794,fe136ab9-21d9-4a4b-befd-3e0ace294794,1,42.392754716249144,-71.1811995981781,POINT (-71.1811995981781 42.392754716249144),2022-03-31 16:51:02 UTC,2022-03-31 16:51:14 UTC,ajackson@ridgelineanalytics.com,ajackson@ridgelineanalytics.com,FC3,Indoor Heat Pump,,,,,,,,
8b1d4471-3527-46d8-888f-27b00660736a,fe136ab9-21d9-4a4b-befd-3e0ace294794,fe136ab9-21d9-4a4b-befd-3e0ace294794,1,42.392753217838,-71.18116996645708,POINT (-71.18116996645708 42.392753217838),2022-03-31 16:51:17 UTC,2022-03-31 16:51:32 UTC,ajackson@ridgelineanalytics.com,ajackson@ridgelineanalytics.com,FC4,Indoor Heat Pump,,,,,,,,
9eebe4ff-28d9-49b1-ad56-e6cfe5bc95d4,fe136ab9-21d9-4a4b-befd-3e0ace294794,fe136ab9-21d9-4a4b-befd-3e0ace294794,1,42.39274938174957,-71.18117645430284,POINT (-71.18117645430284 42.39274938174957),2022-03-31 16:51:35 UTC,2022-03-31 16:51:45 UTC,ajackson@ridgelineanalytics.com,ajackson@ridgelineanalytics.com,Dr Bens Office,Indoor Heat Pump,,,,,,,,
b5b92d5c-669f-4760-a088-5fd11c6e8d33,fe136ab9-21d9-4a4b-befd-3e0ace294794,fe136ab9-21d9-4a4b-befd-3e0ace294794,1,42.39276585379924,-71.18119010320423,POINT (-71.18119010320423 42.39276585379924),2022-03-31 16:51:49 UTC,2022-03-31 16:52:04 UTC,ajackson@ridgelineanalytics.com,ajackson@ridgelineanalytics.com,Classroom 1,Indoor Heat Pump,,,,,,,,
8584a576-c242-4912-8b9e-5ee4f33cd583,fe136ab9-21d9-4a4b-befd-3e0ace294794,fe136ab9-21d9-4a4b-befd-3e0ace294794,1,42.39279659552264,-71.18118890427696,POINT (-71.18118890427696 42.39279659552264),2022-03-31 16:52:05 UTC,2022-03-31 16:52:18 UTC,ajackson@ridgelineanalytics.com,ajackson@ridgelineanalytics.com,Classroom 2,Indoor Heat Pump,,,,,,,,
65de5105-598b-45c9-828d-3eda527b3e1b,fe136ab9-21d9-4a4b-befd-3e0ace294794,fe136ab9-21d9-4a4b-befd-3e0ace294794,1,42.39279548897741,-71.18118719331721,POINT (-71.18118719331721 42.39279548897741),2022-03-31 16:52:21 UTC,2022-03-31 16:52:33 UTC,ajackson@ridgelineanalytics.com,ajackson@ridgelineanalytics.com,Reception 1,Indoor Heat Pump,,,,,,,,
787157d2-9ada-4c12-945d-01d227b07d64,fe136ab9-21d9-4a4b-befd-3e0ace294794,fe136ab9-21d9-4a4b-befd-3e0ace294794,1,42.39277928369298,-71.18114610785803,POINT (-71.18114610785803 42.39277928369298),2022-03-31 16:52:39 UTC,2022-03-31 16:52:51 UTC,ajackson@ridgelineanalytics.com,ajackson@ridgelineanalytics.com,Reception 2,Indoor Heat Pump,,,,,,,,
a8ec34c1-810b-43fb-9d11-2deb76ae904b,fe136ab9-21d9-4a4b-befd-3e0ace294794,fe136ab9-21d9-4a4b-befd-3e0ace294794,1,,,POINT (0.0 0.0),2022-03-31 17:22:21 UTC,2022-03-31 17:22:21 UTC,wrambur@ridgelineanalytics.com,wrambur@ridgelineanalytics.com,Outdoor Unit 1,Outdoor Heat Pump,,,,,,,,
a97c0d81-33bf-4188-af9e-c5e0073ea1c9,fe136ab9-21d9-4a4b-befd-3e0ace294794,fe136ab9-21d9-4a4b-befd-3e0ace294794,1,,,POINT (0.0 0.0),2022-03-31 17:22:31 UTC,2022-03-31 17:22:31 UTC,wrambur@ridgelineanalytics.com,wrambur@ridgelineanalytics.com,Outdoor Unit 2,Outdoor Heat Pump,,,,,,,,
