fulcrum_id,fulcrum_parent_id,fulcrum_record_id,version,latitude,longitude,geometry,created_at,updated_at,created_by,updated_by,photo_st_device,photo_st_device_caption,photo_st_device_url,thingspeak_tag,particle_device_name,install_date_st_device,removal_date_st_device
cd57d0e9-d269-4ebd-8762-785db6516e18,977d2bb3-7886-4cd9-a47c-4418121ac1e9,977d2bb3-7886-4cd9-a47c-4418121ac1e9,6,44.388954613422705,-71.17743681692446,POINT (-71.17743681692446 44.388954613422705),2022-02-22 21:30:11 UTC,2022-02-25 22:31:20 UTC,ajackson@ridgelineanalytics.com,ajackson@ridgelineanalytics.com,57c65782-1c49-477c-b432-fc5fcbe823a1,,https://web.fulcrumapp.com/photos/view?photos=57c65782-1c49-477c-b432-fc5fcbe823a1,a30b0046186c0000,G128,2022-02-18,
433309d7-6075-4c3b-8951-da952df64efa,977d2bb3-7886-4cd9-a47c-4418121ac1e9,977d2bb3-7886-4cd9-a47c-4418121ac1e9,6,44.388951976353646,-71.17744798011539,POINT (-71.17744798011539 44.388951976353646),2022-02-22 21:55:27 UTC,2022-02-25 22:32:05 UTC,ajackson@ridgelineanalytics.com,ajackson@ridgelineanalytics.com,2ede990d-6468-4a31-a320-6b781135d670,,https://web.fulcrumapp.com/photos/view?photos=2ede990d-6468-4a31-a320-6b781135d670,1476519739,LORA,2022-02-18,
cba5554f-9d4c-49eb-b140-60ce2849ab96,977d2bb3-7886-4cd9-a47c-4418121ac1e9,977d2bb3-7886-4cd9-a47c-4418121ac1e9,3,44.38900217914739,-71.17747913168172,POINT (-71.17747913168172 44.38900217914739),2022-02-22 22:27:36 UTC,2022-02-25 22:32:26 UTC,ajackson@ridgelineanalytics.com,ajackson@ridgelineanalytics.com,d7f4af64-7cca-4c90-a860-ef116fd5030b,,https://web.fulcrumapp.com/photos/view?photos=d7f4af64-7cca-4c90-a860-ef116fd5030b,1918054318,LORA,2022-02-18,
11aa49d2-9131-4e1f-8c74-34e7e89ee107,977d2bb3-7886-4cd9-a47c-4418121ac1e9,977d2bb3-7886-4cd9-a47c-4418121ac1e9,3,44.38898047241439,-71.17743421170303,POINT (-71.17743421170303 44.38898047241439),2022-02-22 22:30:57 UTC,2022-02-25 22:33:19 UTC,ajackson@ridgelineanalytics.com,ajackson@ridgelineanalytics.com,5614730d-ce33-4302-8dee-87bd29f1f380,,https://web.fulcrumapp.com/photos/view?photos=5614730d-ce33-4302-8dee-87bd29f1f380,1102670953,LORA,2022-02-18,
984f12dc-2d65-4385-8dae-4d43b05e3d9d,977d2bb3-7886-4cd9-a47c-4418121ac1e9,977d2bb3-7886-4cd9-a47c-4418121ac1e9,4,44.38891912613954,-71.17735465910741,POINT (-71.17735465910741 44.38891912613954),2022-02-22 22:33:09 UTC,2022-03-29 22:47:28 UTC,ajackson@ridgelineanalytics.com,dkorn@ridgelineanalytics.com,4e481d12-c54d-406a-8bc2-867ef7c9345a,,https://web.fulcrumapp.com/photos/view?photos=4e481d12-c54d-406a-8bc2-867ef7c9345a,1407877390,LORA,2022-02-18,
824adc8e-9ddc-42b2-8f84-9f5449d2197a,42cbba6e-2fcb-4544-973d-75a6581c80f3,42cbba6e-2fcb-4544-973d-75a6581c80f3,3,44.38891852278696,-71.17746194831204,POINT (-71.17746194831204 44.38891852278696),2022-02-23 15:44:46 UTC,2022-03-07 14:55:57 UTC,ajackson@ridgelineanalytics.com,wrambur@ridgelineanalytics.com,,,,a30b0043606f0000,R6,2021-04-01,2022-03-04
f480c8d7-45a0-4575-a252-8293430dea5a,42cbba6e-2fcb-4544-973d-75a6581c80f3,42cbba6e-2fcb-4544-973d-75a6581c80f3,3,42.42587730069136,-71.08104349717055,POINT (-71.08104349717055 42.42587730069136),2022-03-07 14:55:58 UTC,2022-03-14 19:13:02 UTC,wrambur@ridgelineanalytics.com,wrambur@ridgelineanalytics.com,"fcab2fb0-ce84-4fd1-9ddc-1749c59818c7,2c3e4d6a-22cb-425e-811b-1ead1a0c21ea,da14aefe-0ecf-41f6-a202-f6486a4aa29b",",,",https://web.fulcrumapp.com/photos/view?photos=fcab2fb0-ce84-4fd1-9ddc-1749c59818c7%2C2c3e4d6a-22cb-425e-811b-1ead1a0c21ea%2Cda14aefe-0ecf-41f6-a202-f6486a4aa29b,Unknown,G1020,2022-03-04,
c7903caa-eb05-44d0-a558-e3f28196ac4d,42cbba6e-2fcb-4544-973d-75a6581c80f3,42cbba6e-2fcb-4544-973d-75a6581c80f3,3,42.42586311213633,-71.08106470068435,POINT (-71.08106470068435 42.42586311213633),2022-03-07 17:05:54 UTC,2022-03-14 19:13:09 UTC,wrambur@ridgelineanalytics.com,wrambur@ridgelineanalytics.com,,,,Unknown,LORA,2022-03-04,
8789b261-73ed-4925-897f-056afcee45e5,d9994688-c44c-41d2-8db4-4670b6bb394b,d9994688-c44c-41d2-8db4-4670b6bb394b,6,42.43745322359167,-71.4975862103492,POINT (-71.4975862103492 42.43745322359167),2022-02-24 23:57:50 UTC,2022-03-03 17:45:58 UTC,dkorn@ridgelineanalytics.com,ajackson@ridgelineanalytics.com,,,,A30B014F78BD0000,G139,2022-01-07,
dff4f863-f7c0-45cd-9f49-4938eb41a010,d9994688-c44c-41d2-8db4-4670b6bb394b,d9994688-c44c-41d2-8db4-4670b6bb394b,2,42.43741766169881,-71.4976114975922,POINT (-71.4976114975922 42.43741766169881),2022-02-25 14:05:26 UTC,2022-02-25 18:00:32 UTC,dkorn@ridgelineanalytics.com,dkorn@ridgelineanalytics.com,,,,2099159243,LORA,2022-01-07,
ef4971fd-c8e8-4cf5-87a8-20cecda9ccbf,d9994688-c44c-41d2-8db4-4670b6bb394b,d9994688-c44c-41d2-8db4-4670b6bb394b,2,42.43745187997329,-71.49750310703475,POINT (-71.49750310703475 42.43745187997329),2022-02-25 14:31:10 UTC,2022-02-25 17:58:43 UTC,dkorn@ridgelineanalytics.com,dkorn@ridgelineanalytics.com,,,,1767723814,LORA,2022-01-07,
7f3a6808-626a-4f18-9cc7-028e1c4d2128,7d6a2442-0393-4ee1-94ae-d162e691fc87,7d6a2442-0393-4ee1-94ae-d162e691fc87,48,44.396228,-68.222372,POINT (-68.222372 44.396228),2022-03-01 16:45:39 UTC,2022-03-31 16:35:30 UTC,dkorn@ridgelineanalytics.com,ajackson@ridgelineanalytics.com,db4f336f-5db6-4e3e-af72-e784bf4af7ef,basement indoors,https://web.fulcrumapp.com/photos/view?photos=db4f336f-5db6-4e3e-af72-e784bf4af7ef,A30B014F79F40000,G157,2021-11-29,
b0749383-bb45-41d5-8b5a-234024223435,7d6a2442-0393-4ee1-94ae-d162e691fc87,7d6a2442-0393-4ee1-94ae-d162e691fc87,48,44.396228,-68.222372,POINT (-68.222372 44.396228),2022-03-01 18:22:13 UTC,2022-03-31 18:53:17 UTC,dkorn@ridgelineanalytics.com,ajackson@ridgelineanalytics.com,"26523321-fcee-4a5b-9772-dcab7d335906,331025b3-60d7-41d6-ae84-9be5280abd01,cf6d2421-e1f7-4ccf-b90d-f314ed973a1d","Outdoors,T/RH on right (south) cell of South Unit,T2 and T3 on left (north) cell of south unit",https://web.fulcrumapp.com/photos/view?photos=26523321-fcee-4a5b-9772-dcab7d335906%2C331025b3-60d7-41d6-ae84-9be5280abd01%2Ccf6d2421-e1f7-4ccf-b90d-f314ed973a1d,1596075823,LORA,2021-12-21,
b3bfba04-050a-4290-8cbc-aa0bb4a2789b,7d6a2442-0393-4ee1-94ae-d162e691fc87,7d6a2442-0393-4ee1-94ae-d162e691fc87,32,44.396228,-68.222372,POINT (-68.222372 44.396228),2022-03-01 18:45:28 UTC,2022-03-31 18:53:28 UTC,dkorn@ridgelineanalytics.com,ajackson@ridgelineanalytics.com,caba08a2-d0d7-4987-b180-cab3a473fa01,,https://web.fulcrumapp.com/photos/view?photos=caba08a2-d0d7-4987-b180-cab3a473fa01,1691024324,LORA,2021-12-21,
830f17ac-5b27-495d-821b-05856c057207,7d6a2442-0393-4ee1-94ae-d162e691fc87,7d6a2442-0393-4ee1-94ae-d162e691fc87,43,44.396228,-68.222372,POINT (-68.222372 44.396228),2022-03-01 18:50:09 UTC,2022-03-31 18:56:21 UTC,dkorn@ridgelineanalytics.com,ajackson@ridgelineanalytics.com,cd3991c7-bc43-4166-ac54-5ff0ef2508de,,https://web.fulcrumapp.com/photos/view?photos=cd3991c7-bc43-4166-ac54-5ff0ef2508de,1583772032,LORA,2021-12-21,
8184aec4-2831-4e67-a45c-61793070f3f0,7d6a2442-0393-4ee1-94ae-d162e691fc87,7d6a2442-0393-4ee1-94ae-d162e691fc87,36,,,POINT (0.0 0.0),2022-03-30 15:31:43 UTC,2022-03-31 18:53:40 UTC,wrambur@ridgelineanalytics.com,ajackson@ridgelineanalytics.com,,,,1681567392,LORA,2021-12-21,
b70d1b07-5f5d-4d5d-a75c-4faeb42d3614,7d6a2442-0393-4ee1-94ae-d162e691fc87,7d6a2442-0393-4ee1-94ae-d162e691fc87,36,,,POINT (0.0 0.0),2022-03-30 15:50:23 UTC,2022-03-31 18:56:11 UTC,wrambur@ridgelineanalytics.com,ajackson@ridgelineanalytics.com,a486c20c-8bfa-4d1a-ac12-476dc1a031c4,,https://web.fulcrumapp.com/photos/view?photos=a486c20c-8bfa-4d1a-ac12-476dc1a031c4,1174750642,LORA,2021-12-21,
da6f6f44-1a28-4443-8fa2-f62bd061de06,7d6a2442-0393-4ee1-94ae-d162e691fc87,7d6a2442-0393-4ee1-94ae-d162e691fc87,35,,,POINT (0.0 0.0),2022-03-30 16:04:36 UTC,2022-03-31 18:55:58 UTC,wrambur@ridgelineanalytics.com,ajackson@ridgelineanalytics.com,10352f83-1385-4bd2-9a79-c05e71f1db9f,,https://web.fulcrumapp.com/photos/view?photos=10352f83-1385-4bd2-9a79-c05e71f1db9f,1037832018,LORA,2021-12-21,
15a2b264-619c-453e-bb89-49e37dbd2177,7d6a2442-0393-4ee1-94ae-d162e691fc87,7d6a2442-0393-4ee1-94ae-d162e691fc87,34,,,POINT (0.0 0.0),2022-03-30 16:10:47 UTC,2022-03-31 18:58:14 UTC,wrambur@ridgelineanalytics.com,ajackson@ridgelineanalytics.com,43787303-cf6b-4fa2-bb1a-4586e05efcaa,,https://web.fulcrumapp.com/photos/view?photos=43787303-cf6b-4fa2-bb1a-4586e05efcaa,1196732983,LORA,2021-12-21,
ec689849-aed1-463c-9c5a-c9e568b65187,7d6a2442-0393-4ee1-94ae-d162e691fc87,7d6a2442-0393-4ee1-94ae-d162e691fc87,33,,,POINT (0.0 0.0),2022-03-30 16:33:15 UTC,2022-03-31 18:59:03 UTC,wrambur@ridgelineanalytics.com,ajackson@ridgelineanalytics.com,b9817cdf-e25b-4985-ab3b-c945a1438fe8,,https://web.fulcrumapp.com/photos/view?photos=b9817cdf-e25b-4985-ab3b-c945a1438fe8,1540472203,LORA,2021-12-21,
70f9c4d7-e39c-4b46-bbdf-9a89be7e70ad,7d6a2442-0393-4ee1-94ae-d162e691fc87,7d6a2442-0393-4ee1-94ae-d162e691fc87,32,,,POINT (0.0 0.0),2022-03-30 18:52:48 UTC,2022-03-31 18:59:37 UTC,wrambur@ridgelineanalytics.com,ajackson@ridgelineanalytics.com,,,,1939593424,LORA,2021-12-21,
f3733d02-f2bb-4bb7-a8e6-a280023bac3f,7d6a2442-0393-4ee1-94ae-d162e691fc87,7d6a2442-0393-4ee1-94ae-d162e691fc87,30,,,POINT (0.0 0.0),2022-03-30 20:25:09 UTC,2022-03-31 19:00:27 UTC,wrambur@ridgelineanalytics.com,ajackson@ridgelineanalytics.com,,,,1971032698,LORA,2021-12-21,
d5fb4208-39b5-4ae8-81ba-8825b17cb609,7d6a2442-0393-4ee1-94ae-d162e691fc87,7d6a2442-0393-4ee1-94ae-d162e691fc87,29,,,POINT (0.0 0.0),2022-03-30 20:55:06 UTC,2022-03-31 19:01:00 UTC,wrambur@ridgelineanalytics.com,ajackson@ridgelineanalytics.com,,,,1683118717,LORA,2021-12-21,
fff6e9cb-3a22-4ff0-9510-0bbc92934814,7d6a2442-0393-4ee1-94ae-d162e691fc87,7d6a2442-0393-4ee1-94ae-d162e691fc87,28,,,POINT (0.0 0.0),2022-03-30 21:01:55 UTC,2022-03-31 19:02:02 UTC,wrambur@ridgelineanalytics.com,ajackson@ridgelineanalytics.com,16de68d2-7176-4b91-82f5-0627b8cb1163,,https://web.fulcrumapp.com/photos/view?photos=16de68d2-7176-4b91-82f5-0627b8cb1163,1509697782,LORA,2021-12-21,
5c44c992-5553-47d9-8142-8ac83e9e8102,7d6a2442-0393-4ee1-94ae-d162e691fc87,7d6a2442-0393-4ee1-94ae-d162e691fc87,28,,,POINT (0.0 0.0),2022-03-30 21:05:56 UTC,2022-03-31 19:02:32 UTC,wrambur@ridgelineanalytics.com,ajackson@ridgelineanalytics.com,,,,1111241415,LORA,2021-12-21,
475b25b4-b44c-4988-97cb-d0ee2f9443fd,7d6a2442-0393-4ee1-94ae-d162e691fc87,7d6a2442-0393-4ee1-94ae-d162e691fc87,26,,,POINT (0.0 0.0),2022-03-30 21:13:17 UTC,2022-03-31 19:03:17 UTC,wrambur@ridgelineanalytics.com,ajackson@ridgelineanalytics.com,,,,1080245376,LORA,2021-12-21,
8c7befb3-3cd3-4659-8cba-b2f1e9bb8a05,7d6a2442-0393-4ee1-94ae-d162e691fc87,7d6a2442-0393-4ee1-94ae-d162e691fc87,26,,,POINT (0.0 0.0),2022-03-30 21:17:17 UTC,2022-03-31 19:04:07 UTC,wrambur@ridgelineanalytics.com,ajackson@ridgelineanalytics.com,,,,1187719286,LORA,2021-12-21,
3dc8903e-b663-475a-962b-070831f8081a,7d6a2442-0393-4ee1-94ae-d162e691fc87,7d6a2442-0393-4ee1-94ae-d162e691fc87,25,,,POINT (0.0 0.0),2022-03-30 21:20:34 UTC,2022-03-31 19:04:41 UTC,wrambur@ridgelineanalytics.com,ajackson@ridgelineanalytics.com,,,,1820702194,LORA,2021-12-21,
2b2459ee-e59e-443f-8a7e-83b9a51d3491,7d6a2442-0393-4ee1-94ae-d162e691fc87,7d6a2442-0393-4ee1-94ae-d162e691fc87,25,,,POINT (0.0 0.0),2022-03-30 21:21:52 UTC,2022-03-31 19:05:16 UTC,wrambur@ridgelineanalytics.com,ajackson@ridgelineanalytics.com,,,,1240032813,LORA,2021-12-21,
12e7117c-ca77-4444-bd5a-9936df88f7ab,7d6a2442-0393-4ee1-94ae-d162e691fc87,7d6a2442-0393-4ee1-94ae-d162e691fc87,24,,,POINT (0.0 0.0),2022-03-30 21:24:39 UTC,2022-03-31 19:05:36 UTC,wrambur@ridgelineanalytics.com,ajackson@ridgelineanalytics.com,,,,1939815042,LORA,2021-12-21,
0ecdca06-ceea-45ca-93a7-556fcba3b81c,7d6a2442-0393-4ee1-94ae-d162e691fc87,7d6a2442-0393-4ee1-94ae-d162e691fc87,24,,,POINT (0.0 0.0),2022-03-30 21:37:20 UTC,2022-03-31 19:06:24 UTC,wrambur@ridgelineanalytics.com,ajackson@ridgelineanalytics.com,,,,1662909319,LORA,2021-12-21,
3f4a2f3c-1b29-4f8d-8d8a-eced425fe59c,7d6a2442-0393-4ee1-94ae-d162e691fc87,7d6a2442-0393-4ee1-94ae-d162e691fc87,24,,,POINT (0.0 0.0),2022-03-30 21:38:45 UTC,2022-03-31 19:07:00 UTC,wrambur@ridgelineanalytics.com,ajackson@ridgelineanalytics.com,,,,1166180181,LORA,2021-12-21,
e4c80e61-a4a4-4df8-9a2a-7886471600bd,7d6a2442-0393-4ee1-94ae-d162e691fc87,7d6a2442-0393-4ee1-94ae-d162e691fc87,24,43.432993,-73.562628,POINT (-73.562628 43.432993),2022-03-30 21:41:44 UTC,2022-03-31 19:07:41 UTC,wrambur@ridgelineanalytics.com,ajackson@ridgelineanalytics.com,,,,1454759016,LORA,2021-12-21,
9aa1efa9-f06f-4433-9d78-589398eeaa94,7d6a2442-0393-4ee1-94ae-d162e691fc87,7d6a2442-0393-4ee1-94ae-d162e691fc87,23,,,POINT (0.0 0.0),2022-03-30 21:45:47 UTC,2022-03-31 19:08:04 UTC,wrambur@ridgelineanalytics.com,ajackson@ridgelineanalytics.com,,,,1605311138,LORA,2021-12-21,
fd77e7ac-993d-49d5-9b5b-b3d00d695e02,7d6a2442-0393-4ee1-94ae-d162e691fc87,7d6a2442-0393-4ee1-94ae-d162e691fc87,23,,,POINT (0.0 0.0),2022-03-30 21:47:06 UTC,2022-03-31 19:09:10 UTC,wrambur@ridgelineanalytics.com,ajackson@ridgelineanalytics.com,,,,1647946113,LORA,2021-12-21,
df621c7e-1614-4239-8005-35829573be9c,7d6a2442-0393-4ee1-94ae-d162e691fc87,7d6a2442-0393-4ee1-94ae-d162e691fc87,22,,,POINT (0.0 0.0),2022-03-30 21:48:52 UTC,2022-03-31 19:09:05 UTC,wrambur@ridgelineanalytics.com,ajackson@ridgelineanalytics.com,,,,2077620137,LORA,2021-12-21,
394a3b66-d953-47d3-941e-751cbfa2ac01,7d6a2442-0393-4ee1-94ae-d162e691fc87,7d6a2442-0393-4ee1-94ae-d162e691fc87,21,,,POINT (0.0 0.0),2022-03-30 21:52:24 UTC,2022-03-31 19:09:39 UTC,wrambur@ridgelineanalytics.com,ajackson@ridgelineanalytics.com,,,,1617393310,LORA,2021-12-21,
0f618c4e-4555-4baf-8a91-bc7cff32bed6,7d6a2442-0393-4ee1-94ae-d162e691fc87,7d6a2442-0393-4ee1-94ae-d162e691fc87,21,,,POINT (0.0 0.0),2022-03-30 21:54:47 UTC,2022-03-31 19:10:27 UTC,wrambur@ridgelineanalytics.com,ajackson@ridgelineanalytics.com,,,,1295636433,LORA,2021-12-21,
8cbc970b-bf51-4eee-b32b-4ad2e587cf74,7d6a2442-0393-4ee1-94ae-d162e691fc87,7d6a2442-0393-4ee1-94ae-d162e691fc87,20,,,POINT (0.0 0.0),2022-03-30 22:05:50 UTC,2022-03-31 19:10:56 UTC,wrambur@ridgelineanalytics.com,ajackson@ridgelineanalytics.com,,,,1917832700,LORA,2021-12-21,
71931345-aacc-458d-b711-9008bd8ce6b2,7d6a2442-0393-4ee1-94ae-d162e691fc87,7d6a2442-0393-4ee1-94ae-d162e691fc87,19,,,POINT (0.0 0.0),2022-03-30 22:12:31 UTC,2022-03-31 19:11:35 UTC,wrambur@ridgelineanalytics.com,ajackson@ridgelineanalytics.com,,,,1154541244,LORA,2021-12-21,
d386be1f-041c-4f6f-be34-cc5a279b57bc,7d6a2442-0393-4ee1-94ae-d162e691fc87,7d6a2442-0393-4ee1-94ae-d162e691fc87,18,,,POINT (0.0 0.0),2022-03-30 22:15:08 UTC,2022-03-31 19:12:00 UTC,wrambur@ridgelineanalytics.com,ajackson@ridgelineanalytics.com,,,,1498280463,LORA,2021-12-21,
1c89690a-31e7-4b27-abfc-24c469511465,7d6a2442-0393-4ee1-94ae-d162e691fc87,7d6a2442-0393-4ee1-94ae-d162e691fc87,18,,,POINT (0.0 0.0),2022-03-30 22:16:27 UTC,2022-03-31 19:12:49 UTC,wrambur@ridgelineanalytics.com,ajackson@ridgelineanalytics.com,,,,1927511251,LORA,2021-12-21,
0c4ca8db-4ca3-4501-ae24-5f52e200aec3,7d6a2442-0393-4ee1-94ae-d162e691fc87,7d6a2442-0393-4ee1-94ae-d162e691fc87,17,,,POINT (0.0 0.0),2022-03-30 22:20:48 UTC,2022-03-31 19:12:43 UTC,wrambur@ridgelineanalytics.com,ajackson@ridgelineanalytics.com,,,,1596519058,LORA,2021-12-21,
6c8a9243-0861-4bee-ba7d-2085d09a646e,a40ec554-d6b7-4861-ac38-83e1454ac2fd,a40ec554-d6b7-4861-ac38-83e1454ac2fd,1,,,POINT (0.0 0.0),2022-03-02 14:19:58 UTC,2022-03-02 14:19:58 UTC,dkorn@ridgelineanalytics.com,dkorn@ridgelineanalytics.com,,,,A30B004852AB0000,G35,2022-01-07,
4c0bbe5c-627c-4575-91a8-11adead2e342,a40ec554-d6b7-4861-ac38-83e1454ac2fd,a40ec554-d6b7-4861-ac38-83e1454ac2fd,1,,,POINT (0.0 0.0),2022-03-02 14:37:59 UTC,2022-03-02 14:37:59 UTC,dkorn@ridgelineanalytics.com,dkorn@ridgelineanalytics.com,,,,1606197609,LORA,2022-01-11,
fc232e92-2dfc-49e2-a36a-7b156c3d46e2,a40ec554-d6b7-4861-ac38-83e1454ac2fd,a40ec554-d6b7-4861-ac38-83e1454ac2fd,1,43.89026,-70.099901,POINT (-70.099901 43.89026),2022-03-02 14:45:43 UTC,2022-03-02 14:45:43 UTC,dkorn@ridgelineanalytics.com,dkorn@ridgelineanalytics.com,a1f9f8bb-9260-437a-af73-406135252775,,https://web.fulcrumapp.com/photos/view?photos=a1f9f8bb-9260-437a-af73-406135252775,1477627829,LORA,2022-01-11,
dc10efef-9c3a-4e54-a04b-b39ff51e366f,0a967be3-bc60-4cbe-8b31-ca8d07b5da0a,0a967be3-bc60-4cbe-8b31-ca8d07b5da0a,13,42.425774646711,-71.08103538419891,POINT (-71.08103538419891 42.425774646711),2022-03-02 19:22:00 UTC,2022-03-03 13:33:00 UTC,wrambur@ridgelineanalytics.com,wrambur@ridgelineanalytics.com,,,,A30B014FA0120000,G1023,2022-02-17,
51bb2352-0cf3-4ac4-b835-3d341982e5d0,0a967be3-bc60-4cbe-8b31-ca8d07b5da0a,0a967be3-bc60-4cbe-8b31-ca8d07b5da0a,11,,,POINT (0.0 0.0),2022-03-02 19:39:44 UTC,2022-03-02 20:32:33 UTC,wrambur@ridgelineanalytics.com,wrambur@ridgelineanalytics.com,,,,1519154715,LORA,2022-02-17,
87ac6a13-3268-40d1-910e-18853bbacca6,0a967be3-bc60-4cbe-8b31-ca8d07b5da0a,0a967be3-bc60-4cbe-8b31-ca8d07b5da0a,11,,,POINT (0.0 0.0),2022-03-02 19:43:19 UTC,2022-03-02 19:47:37 UTC,wrambur@ridgelineanalytics.com,wrambur@ridgelineanalytics.com,,,,1841576446,LORA,2022-02-17,
b46b0135-f50e-4484-a6d1-7e8098de82ef,0a967be3-bc60-4cbe-8b31-ca8d07b5da0a,0a967be3-bc60-4cbe-8b31-ca8d07b5da0a,11,,,POINT (0.0 0.0),2022-03-02 19:44:56 UTC,2022-03-02 19:47:45 UTC,wrambur@ridgelineanalytics.com,wrambur@ridgelineanalytics.com,,,,1949715210,LORA,2022-02-17,
ec097b14-1591-4321-bfdf-299874ca34b2,0a967be3-bc60-4cbe-8b31-ca8d07b5da0a,0a967be3-bc60-4cbe-8b31-ca8d07b5da0a,11,,,POINT (0.0 0.0),2022-03-02 19:46:16 UTC,2022-03-03 15:05:23 UTC,wrambur@ridgelineanalytics.com,wrambur@ridgelineanalytics.com,,,,1209258392,LORA,2022-02-17,
832ff5ff-3248-479e-8314-2c950b9d23e8,0a967be3-bc60-4cbe-8b31-ca8d07b5da0a,0a967be3-bc60-4cbe-8b31-ca8d07b5da0a,3,,,POINT (0.0 0.0),2022-03-03 16:18:47 UTC,2022-03-03 16:18:47 UTC,wrambur@ridgelineanalytics.com,wrambur@ridgelineanalytics.com,,,,A30B004366AF0000,G43,2022-02-17,
f971705a-70b9-4fc4-945e-195c63176890,b22c74bc-d091-4696-9002-0e3f16606e6c,b22c74bc-d091-4696-9002-0e3f16606e6c,5,,,POINT (0.0 0.0),2022-03-02 20:45:23 UTC,2022-03-02 20:50:41 UTC,wrambur@ridgelineanalytics.com,wrambur@ridgelineanalytics.com,,,,A30B004366AF0000,G43,2022-02-17,
b15ea9f4-ef77-4d1b-899d-5e77a43c1d27,b22c74bc-d091-4696-9002-0e3f16606e6c,b22c74bc-d091-4696-9002-0e3f16606e6c,5,,,POINT (0.0 0.0),2022-03-02 20:45:46 UTC,2022-03-25 16:25:25 UTC,wrambur@ridgelineanalytics.com,wrambur@ridgelineanalytics.com,,,,100063,LORA,2022-02-18,2022-03-23
4d93fdb0-3c3a-4e48-987c-7a7be7b33357,b22c74bc-d091-4696-9002-0e3f16606e6c,b22c74bc-d091-4696-9002-0e3f16606e6c,4,,,POINT (0.0 0.0),2022-03-02 21:02:00 UTC,2022-03-02 21:02:00 UTC,wrambur@ridgelineanalytics.com,wrambur@ridgelineanalytics.com,,,,1197176219,LORA,2022-02-18,
01463af7-f103-4e42-9dad-5c65ca51d7be,b22c74bc-d091-4696-9002-0e3f16606e6c,b22c74bc-d091-4696-9002-0e3f16606e6c,4,,,POINT (0.0 0.0),2022-03-02 21:15:50 UTC,2022-03-02 21:15:50 UTC,wrambur@ridgelineanalytics.com,wrambur@ridgelineanalytics.com,,,,1081796701,LORA,2022-02-18,
f512a663-c29f-4fbd-90ad-6cdc35ad8a5e,b22c74bc-d091-4696-9002-0e3f16606e6c,b22c74bc-d091-4696-9002-0e3f16606e6c,4,,,POINT (0.0 0.0),2022-03-02 21:17:23 UTC,2022-03-02 21:17:23 UTC,wrambur@ridgelineanalytics.com,wrambur@ridgelineanalytics.com,,,,2034763544,LORA,2022-02-18,
19f60d5d-0df5-40b6-a5da-18bd9eb1d1a9,b22c74bc-d091-4696-9002-0e3f16606e6c,b22c74bc-d091-4696-9002-0e3f16606e6c,4,,,POINT (0.0 0.0),2022-03-02 21:18:39 UTC,2022-03-02 21:21:27 UTC,wrambur@ridgelineanalytics.com,wrambur@ridgelineanalytics.com,,,,1432998292,LORA,2022-02-18,
471af2bc-d265-44bb-953b-982692ba8b81,b22c74bc-d091-4696-9002-0e3f16606e6c,b22c74bc-d091-4696-9002-0e3f16606e6c,3,45.0194041212851,-69.29420578188258,POINT (-69.29420578188258 45.0194041212851),2022-03-23 19:51:14 UTC,2022-03-25 16:25:27 UTC,wrambur@ridgelineanalytics.com,wrambur@ridgelineanalytics.com,"cffb85c9-641a-418b-9537-67f23be79048,952ff2c2-5758-4ede-8c9c-3c0c9b016942",",",https://web.fulcrumapp.com/photos/view?photos=cffb85c9-641a-418b-9537-67f23be79048%2C952ff2c2-5758-4ede-8c9c-3c0c9b016942,1708665219,LORA,2022-03-23,
9597091f-e988-4bed-b921-cd9e97a8b101,dbbd6e8d-06e6-4bc2-8332-672ef75d7d86,dbbd6e8d-06e6-4bc2-8332-672ef75d7d86,2,44.38894072132964,-71.17741376023764,POINT (-71.17741376023764 44.38894072132964),2022-03-02 23:06:43 UTC,2022-03-07 15:45:50 UTC,ajackson@ridgelineanalytics.com,wrambur@ridgelineanalytics.com,,,,a30b004372c70000,R10,2021-04-01,2022-03-04
2a163450-66d2-446c-a0a5-20473391aa5e,dbbd6e8d-06e6-4bc2-8332-672ef75d7d86,dbbd6e8d-06e6-4bc2-8332-672ef75d7d86,2,44.076615,-68.632657,POINT (-68.632657 44.076615),2022-03-07 15:44:57 UTC,2022-03-23 01:19:05 UTC,wrambur@ridgelineanalytics.com,dkorn@ridgelineanalytics.com,,,,a30b004631eb0000,G74,2022-03-04,
478d22b6-d04c-4113-8d97-779739bbd1c4,dbbd6e8d-06e6-4bc2-8332-672ef75d7d86,dbbd6e8d-06e6-4bc2-8332-672ef75d7d86,2,42.425875462352735,-71.08112330958618,POINT (-71.08112330958618 42.425875462352735),2022-03-07 15:46:39 UTC,2022-03-14 12:59:01 UTC,wrambur@ridgelineanalytics.com,wrambur@ridgelineanalytics.com,ee64591a-854c-48ce-9c9f-4ee579418d90,,https://web.fulcrumapp.com/photos/view?photos=ee64591a-854c-48ce-9c9f-4ee579418d90,1223924977,LORA,2022-03-04,
582f5576-3283-4606-84ef-1d9838d56d3e,dbbd6e8d-06e6-4bc2-8332-672ef75d7d86,dbbd6e8d-06e6-4bc2-8332-672ef75d7d86,6,42.425852040743976,-71.0810456527661,POINT (-71.0810456527661 42.425852040743976),2022-03-07 15:54:07 UTC,2022-03-14 21:35:04 UTC,wrambur@ridgelineanalytics.com,wrambur@ridgelineanalytics.com,,,,a30b00434f8b0000,R5,2021-04-01,
7f14651a-2aed-4a29-aa00-9afd15cc69af,cbc5e323-cc13-42c0-8993-d0aa04769908,cbc5e323-cc13-42c0-8993-d0aa04769908,4,42.42586681938958,-71.08104082411208,POINT (-71.08104082411208 42.42586681938958),2022-03-07 16:15:42 UTC,2022-03-24 13:54:01 UTC,wrambur@ridgelineanalytics.com,wrambur@ridgelineanalytics.com,"924d70a4-2442-4ac7-8bcf-476ba6822560,23debf7e-d536-40f7-a9e8-76ae50b1c21f",",",https://web.fulcrumapp.com/photos/view?photos=924d70a4-2442-4ac7-8bcf-476ba6822560%2C23debf7e-d536-40f7-a9e8-76ae50b1c21f,a30b004631eb0000,G74,2022-03-04,
5fc7761d-370a-4c46-90e0-3bd945e5de21,cbc5e323-cc13-42c0-8993-d0aa04769908,cbc5e323-cc13-42c0-8993-d0aa04769908,2,42.42592234040222,-71.08109469429586,POINT (-71.08109469429586 42.42592234040222),2022-03-07 16:19:56 UTC,2022-03-14 12:48:27 UTC,wrambur@ridgelineanalytics.com,wrambur@ridgelineanalytics.com,,,,1709389624,LORA,2022-03-04,
cfaac06e-6875-4c0f-bd67-a211c09398b2,cbc5e323-cc13-42c0-8993-d0aa04769908,cbc5e323-cc13-42c0-8993-d0aa04769908,2,42.425844829077825,-71.08096487611034,POINT (-71.08096487611034 42.425844829077825),2022-03-07 16:31:11 UTC,2022-03-14 12:48:37 UTC,wrambur@ridgelineanalytics.com,wrambur@ridgelineanalytics.com,,,,1274586981,LORA,2022-03-04,
dd603f72-d0ff-498d-8afe-026bf8a41d46,cbc5e323-cc13-42c0-8993-d0aa04769908,cbc5e323-cc13-42c0-8993-d0aa04769908,4,42.42585271299779,-71.08110740080903,POINT (-71.08110740080903 42.42585271299779),2022-03-07 16:35:43 UTC,2022-03-24 13:02:27 UTC,wrambur@ridgelineanalytics.com,wrambur@ridgelineanalytics.com,,,,Unknown,LORA,2022-03-04,2022-03-24
e938140d-8f05-435f-947d-2b8c66b21eda,cbc5e323-cc13-42c0-8993-d0aa04769908,cbc5e323-cc13-42c0-8993-d0aa04769908,2,42.42582655856806,-71.08112920100476,POINT (-71.08112920100476 42.42582655856806),2022-03-07 16:36:31 UTC,2022-03-14 12:49:01 UTC,wrambur@ridgelineanalytics.com,wrambur@ridgelineanalytics.com,,,,1978460379,LORA,2022-03-04,
ccbb0d75-002d-4f63-8fff-ac5f59bcf45e,cbc5e323-cc13-42c0-8993-d0aa04769908,cbc5e323-cc13-42c0-8993-d0aa04769908,2,44.076803912544875,-68.63111825616126,POINT (-68.63111825616126 44.076803912544875),2022-03-24 13:02:28 UTC,2022-03-25 14:45:47 UTC,wrambur@ridgelineanalytics.com,wrambur@ridgelineanalytics.com,"4bfe1566-b804-4654-9477-0278459cf7ea,04633e5b-80f5-408c-9681-7c73d365670b",",",https://web.fulcrumapp.com/photos/view?photos=4bfe1566-b804-4654-9477-0278459cf7ea%2C04633e5b-80f5-408c-9681-7c73d365670b,1046624098,LORA,2022-03-24,
74c420c6-add5-4074-b4d6-56732b81d4c7,17a4a2ba-babd-4474-b613-8ae79e4b8d8e,17a4a2ba-babd-4474-b613-8ae79e4b8d8e,3,42.425880556219575,-71.08098933709886,POINT (-71.08098933709886 42.425880556219575),2022-03-07 16:54:08 UTC,2022-03-24 15:08:41 UTC,wrambur@ridgelineanalytics.com,wrambur@ridgelineanalytics.com,"aafa44fe-2e32-4784-8c90-8e41518f9628,0c430c58-0162-405f-897e-beeefad71da3",",",https://web.fulcrumapp.com/photos/view?photos=aafa44fe-2e32-4784-8c90-8e41518f9628%2C0c430c58-0162-405f-897e-beeefad71da3,a30b00434fb90000,G1002,2022-03-04,
76ece0be-23d5-4520-9ec1-7674934b11b1,17a4a2ba-babd-4474-b613-8ae79e4b8d8e,17a4a2ba-babd-4474-b613-8ae79e4b8d8e,2,42.425843941282466,-71.08105543839815,POINT (-71.08105543839815 42.425843941282466),2022-03-07 17:02:16 UTC,2022-03-14 12:49:40 UTC,wrambur@ridgelineanalytics.com,wrambur@ridgelineanalytics.com,,,,4294934527,LORA,2022-03-04,
595fb0ec-e84d-48cb-9cad-f50fcbff632d,cfaaa8b2-08b1-40a5-b95b-321860f7d099,cfaaa8b2-08b1-40a5-b95b-321860f7d099,1,,,POINT (0.0 0.0),2022-03-23 01:29:04 UTC,2022-03-23 01:29:04 UTC,dkorn@ridgelineanalytics.com,dkorn@ridgelineanalytics.com,b8343823-3dec-40e5-bfbc-2a44f8f12500,,https://web.fulcrumapp.com/photos/view?photos=b8343823-3dec-40e5-bfbc-2a44f8f12500,1381128002,LORA,,
29fa4ad6-316d-4ea8-993f-5c8ba7d2781e,cfaaa8b2-08b1-40a5-b95b-321860f7d099,cfaaa8b2-08b1-40a5-b95b-321860f7d099,1,,,POINT (0.0 0.0),2022-03-23 01:38:28 UTC,2022-03-23 01:38:28 UTC,dkorn@ridgelineanalytics.com,dkorn@ridgelineanalytics.com,4bf4cdab-24c3-4e37-8cfb-dca6dfb0cb2e,,https://web.fulcrumapp.com/photos/view?photos=4bf4cdab-24c3-4e37-8cfb-dca6dfb0cb2e,100050,LORA,,
5cbd8e35-1687-495a-8bd0-4f15adaebde6,1e9761d8-1c1c-4954-bc61-43b51a3d6353,1e9761d8-1c1c-4954-bc61-43b51a3d6353,1,,,POINT (0.0 0.0),2022-03-25 03:29:13 UTC,2022-03-25 03:31:36 UTC,dkorn@ridgelineanalytics.com,dkorn@ridgelineanalytics.com,a18eb131-9bf4-4e68-a28a-f58377e6014d,,https://web.fulcrumapp.com/photos/view?photos=a18eb131-9bf4-4e68-a28a-f58377e6014d,1145084311,LORA,,
d4cc93d0-a27d-42fb-b548-d15696b36e5f,2da700ff-0d0a-449f-ad5f-c3027d5b0f9d,2da700ff-0d0a-449f-ad5f-c3027d5b0f9d,4,0.000472,-0.002714,POINT (-0.002714 0.000472),2022-03-28 20:42:18 UTC,2022-03-28 20:54:45 UTC,dkorn@ridgelineanalytics.com,dkorn@ridgelineanalytics.com,,,,a30b0046186c0000,G128,,
130a0433-749c-4342-8aaf-b696a3dca121,88bb0c50-5377-4a28-9c18-c891ab2847f4,88bb0c50-5377-4a28-9c18-c891ab2847f4,15,,,POINT (0.0 0.0),2022-03-30 19:05:38 UTC,2022-03-31 17:03:36 UTC,wrambur@ridgelineanalytics.com,wrambur@ridgelineanalytics.com,,,,A30B0046154F0000,G1003,2022-03-15,
09428ad0-3860-4bd8-953c-3fd066e48a29,88bb0c50-5377-4a28-9c18-c891ab2847f4,88bb0c50-5377-4a28-9c18-c891ab2847f4,3,,,POINT (0.0 0.0),2022-03-30 19:17:03 UTC,2022-03-31 13:02:33 UTC,wrambur@ridgelineanalytics.com,wrambur@ridgelineanalytics.com,,,,1381349620,LORA,2022-03-15,
2bb58f82-bcdf-4c61-8982-e9207964ee75,88bb0c50-5377-4a28-9c18-c891ab2847f4,88bb0c50-5377-4a28-9c18-c891ab2847f4,14,,,POINT (0.0 0.0),2022-03-30 19:23:06 UTC,2022-03-31 13:03:03 UTC,wrambur@ridgelineanalytics.com,wrambur@ridgelineanalytics.com,,,,1145305929,LORA,2022-03-15,
28de8bf5-761f-4da0-9e93-f9460e2ef223,88bb0c50-5377-4a28-9c18-c891ab2847f4,88bb0c50-5377-4a28-9c18-c891ab2847f4,2,42.39275876657143,-71.18119700409184,POINT (-71.18119700409184 42.39275876657143),2022-03-30 23:10:23 UTC,2022-03-31 13:03:11 UTC,ajackson@ridgelineanalytics.com,wrambur@ridgelineanalytics.com,,,,1004210740,LORA,2022-03-15,
a171a5e9-bd15-4c4f-9baa-5bf48a6c9690,88bb0c50-5377-4a28-9c18-c891ab2847f4,88bb0c50-5377-4a28-9c18-c891ab2847f4,3,42.392742938879906,-71.18122100173018,POINT (-71.18122100173018 42.392742938879906),2022-03-30 23:16:20 UTC,2022-03-31 13:03:30 UTC,ajackson@ridgelineanalytics.com,wrambur@ridgelineanalytics.com,,,,1260907065,LORA,2022-03-15,
1b88a76f-e8ac-457b-b80d-d5cd4f24d3bc,88bb0c50-5377-4a28-9c18-c891ab2847f4,88bb0c50-5377-4a28-9c18-c891ab2847f4,3,42.39268662883477,-71.18122343433967,POINT (-71.18122343433967 42.39268662883477),2022-03-30 23:23:04 UTC,2022-03-31 13:03:40 UTC,ajackson@ridgelineanalytics.com,wrambur@ridgelineanalytics.com,,,,1767502196,LORA,2022-03-15,
1ede5a5f-ffcc-4050-bb68-2c5733ab61fd,88bb0c50-5377-4a28-9c18-c891ab2847f4,88bb0c50-5377-4a28-9c18-c891ab2847f4,3,42.39270827535444,-71.18122056709774,POINT (-71.18122056709774 42.39270827535444),2022-03-30 23:26:11 UTC,2022-03-31 13:03:47 UTC,ajackson@ridgelineanalytics.com,wrambur@ridgelineanalytics.com,,,,1081131848,LORA,2022-03-15,
9326aac1-0b34-42ea-ac52-b706b0369443,88bb0c50-5377-4a28-9c18-c891ab2847f4,88bb0c50-5377-4a28-9c18-c891ab2847f4,3,42.39270827535444,-71.18122056709774,POINT (-71.18122056709774 42.39270827535444),2022-03-30 23:30:11 UTC,2022-03-31 13:04:11 UTC,ajackson@ridgelineanalytics.com,wrambur@ridgelineanalytics.com,,,,1434771235,LORA,2022-03-15,
cd024f81-41b0-474c-8e59-c46bb28a103c,88bb0c50-5377-4a28-9c18-c891ab2847f4,88bb0c50-5377-4a28-9c18-c891ab2847f4,3,42.39270827535444,-71.18122056709774,POINT (-71.18122056709774 42.39270827535444),2022-03-30 23:32:21 UTC,2022-03-31 13:04:18 UTC,ajackson@ridgelineanalytics.com,wrambur@ridgelineanalytics.com,,,,1553884083,LORA,2022-03-15,
e04ab818-7bf8-43ea-ad20-ec1f296cb8fb,88bb0c50-5377-4a28-9c18-c891ab2847f4,88bb0c50-5377-4a28-9c18-c891ab2847f4,3,42.39270827535444,-71.18122056709774,POINT (-71.18122056709774 42.39270827535444),2022-03-30 23:34:46 UTC,2022-03-31 13:04:24 UTC,ajackson@ridgelineanalytics.com,wrambur@ridgelineanalytics.com,,,,1369045829,LORA,2022-03-15,
15d2469d-0afd-4513-8705-85b2faf664df,fe136ab9-21d9-4a4b-befd-3e0ace294794,fe136ab9-21d9-4a4b-befd-3e0ace294794,3,42.392744466563016,-71.18122881388778,POINT (-71.18122881388778 42.392744466563016),2022-03-31 15:30:02 UTC,2022-03-31 17:05:20 UTC,ajackson@ridgelineanalytics.com,ajackson@ridgelineanalytics.com,,,,A30B014F9CA30000,G158,2021-12-01,
9d90bc9d-70f6-47ff-815a-feefa06022c0,fe136ab9-21d9-4a4b-befd-3e0ace294794,fe136ab9-21d9-4a4b-befd-3e0ace294794,1,42.392736772765446,-71.18123738922024,POINT (-71.18123738922024 42.392736772765446),2022-03-31 15:32:56 UTC,2022-03-31 15:37:40 UTC,ajackson@ridgelineanalytics.com,ajackson@ridgelineanalytics.com,,,,1090145545,LORA,2021-12-01,
51c095aa-0559-4c68-aa91-f9bb0c976974,fe136ab9-21d9-4a4b-befd-3e0ace294794,fe136ab9-21d9-4a4b-befd-3e0ace294794,1,42.39275964058277,-71.18123646761214,POINT (-71.18123646761214 42.39275964058277),2022-03-31 15:37:42 UTC,2022-03-31 15:40:30 UTC,ajackson@ridgelineanalytics.com,ajackson@ridgelineanalytics.com,,,,2013224438,LORA,2021-12-01,
6fbc52b5-b8df-4ca6-b6ae-70dd4d4720c4,fe136ab9-21d9-4a4b-befd-3e0ace294794,fe136ab9-21d9-4a4b-befd-3e0ace294794,1,42.39278882694024,-71.18120547891456,POINT (-71.18120547891456 42.39278882694024),2022-03-31 15:40:40 UTC,2022-03-31 15:42:58 UTC,ajackson@ridgelineanalytics.com,ajackson@ridgelineanalytics.com,,,,1991685332,LORA,2022-03-28,
61321969-9080-429c-b8e8-77246388095f,fe136ab9-21d9-4a4b-befd-3e0ace294794,fe136ab9-21d9-4a4b-befd-3e0ace294794,1,42.392768497551884,-71.18118963840253,POINT (-71.18118963840253 42.392768497551884),2022-03-31 15:43:06 UTC,2022-03-31 15:44:57 UTC,ajackson@ridgelineanalytics.com,ajackson@ridgelineanalytics.com,,,,1660471522,LORA,2022-03-28,
b510a113-6f36-4055-9a9f-4f884d68635a,fe136ab9-21d9-4a4b-befd-3e0ace294794,fe136ab9-21d9-4a4b-befd-3e0ace294794,1,42.392768497551884,-71.18118963840253,POINT (-71.18118963840253 42.392768497551884),2022-03-31 15:45:10 UTC,2022-03-31 15:47:02 UTC,ajackson@ridgelineanalytics.com,ajackson@ridgelineanalytics.com,,,,1552432453,LORA,2022-03-28,
0197ac4f-ab01-49ff-af4a-d84f3f10da73,fe136ab9-21d9-4a4b-befd-3e0ace294794,fe136ab9-21d9-4a4b-befd-3e0ace294794,1,42.392768497551884,-71.18118963840253,POINT (-71.18118963840253 42.392768497551884),2022-03-31 15:47:04 UTC,2022-03-31 15:48:33 UTC,ajackson@ridgelineanalytics.com,ajackson@ridgelineanalytics.com,,,,1187940904,LORA,2022-03-28,
5a8c252c-a194-493d-9ea0-676fcb0e594c,fe136ab9-21d9-4a4b-befd-3e0ace294794,fe136ab9-21d9-4a4b-befd-3e0ace294794,1,42.392768497551884,-71.18118963840253,POINT (-71.18118963840253 42.392768497551884),2022-03-31 15:48:40 UTC,2022-03-31 15:51:23 UTC,ajackson@ridgelineanalytics.com,ajackson@ridgelineanalytics.com,,,,1347949959,LORA,2022-03-28,
8f1314ef-18b7-4e98-9c63-02e6e6144696,fe136ab9-21d9-4a4b-befd-3e0ace294794,fe136ab9-21d9-4a4b-befd-3e0ace294794,1,42.392768497551884,-71.18118963840253,POINT (-71.18118963840253 42.392768497551884),2022-03-31 15:51:30 UTC,2022-03-31 15:53:40 UTC,ajackson@ridgelineanalytics.com,ajackson@ridgelineanalytics.com,,,,1691245942,LORA,2021-12-01,
b38c38a3-cab7-473b-8bd2-b1bb1efe07d6,fe136ab9-21d9-4a4b-befd-3e0ace294794,fe136ab9-21d9-4a4b-befd-3e0ace294794,1,42.392735132106814,-71.1812136404372,POINT (-71.1812136404372 42.392735132106814),2022-03-31 15:53:43 UTC,2022-03-31 15:55:40 UTC,ajackson@ridgelineanalytics.com,ajackson@ridgelineanalytics.com,,,,1841576446,LORA,2021-12-01,
cf304ac6-7150-4c68-8e65-e56b3fa70180,fe136ab9-21d9-4a4b-befd-3e0ace294794,fe136ab9-21d9-4a4b-befd-3e0ace294794,1,42.39269687018796,-71.18123720795114,POINT (-71.18123720795114 42.39269687018796),2022-03-31 15:55:45 UTC,2022-03-31 15:59:19 UTC,ajackson@ridgelineanalytics.com,ajackson@ridgelineanalytics.com,,,,1832119513,LORA,2021-12-01,
a0cc2fcb-59b5-4f22-b1fc-ec430bca1449,fe136ab9-21d9-4a4b-befd-3e0ace294794,fe136ab9-21d9-4a4b-befd-3e0ace294794,1,42.39277334397899,-71.18116335551177,POINT (-71.18116335551177 42.39277334397899),2022-03-31 15:59:31 UTC,2022-03-31 16:01:02 UTC,ajackson@ridgelineanalytics.com,ajackson@ridgelineanalytics.com,,,,2013224438,LORA,2021-12-01,
