fulcrum_id,fulcrum_parent_id,fulcrum_record_id,version,caption,latitude,longitude,geometry,file_size,uploaded_at,exif_date_time,exif_gps_altitude,exif_gps_date_stamp,exif_gps_time_stamp,exif_gps_dop,exif_gps_img_direction,exif_gps_img_direction_ref,exif_gps_latitude,exif_gps_latitude_ref,exif_gps_longitude,exif_gps_longitude_ref,exif_make,exif_model,exif_orientation,exif_pixel_x_dimension,exif_pixel_y_dimension,exif_software,exif_x_resolution,exif_y_resolution
3bb2448f-9225-4d4f-976f-72e74cd68555,977d2bb3-7886-4cd9-a47c-4418121ac1e9,977d2bb3-7886-4cd9-a47c-4418121ac1e9,1,,44.388958333333335,-71.17747777777778,POINT (-71.17747777777778 44.388958333333335),398938,2022-02-22 21:40:33 UTC,2022-02-22 16:29:23 UTC,243.48045795499408,,,5.24143897996357,280.35244755244753,T,44.388958333333335,N,-71.17747777777778,W,Apple,iPhone 12 mini,,1080.0,810.0,"Fulcrum iOS 3.0.9 (6901), iOS 15.1.1, Apple, Unknown Device",72.0,72.0
7d6926e9-8dbe-46e0-a277-f032b27da493,d9994688-c44c-41d2-8db4-4670b6bb394b,d9994688-c44c-41d2-8db4-4670b6bb394b,1,,0.0,0.0,POINT (0.0 0.0),4044097,2022-02-24 23:16:21 UTC,2022-01-04 12:42:42 UTC,,,,,,,,,,,Apple,iPhone 12 Pro Max,,3024.0,4032.0,15.1.1,72.0,72.0
1b499ae6-b9eb-45f2-94d9-4043b75a2d60,d9994688-c44c-41d2-8db4-4670b6bb394b,d9994688-c44c-41d2-8db4-4670b6bb394b,1,,0.0,0.0,POINT (0.0 0.0),2709559,2022-02-24 23:16:32 UTC,2022-01-04 16:02:09 UTC,,,,,,,,,,,Apple,iPhone 12 Pro Max,,3024.0,4032.0,15.1.1,72.0,72.0
c03000f4-ccf6-401d-ac61-6c68f80d3226,a40ec554-d6b7-4861-ac38-83e1454ac2fd,a40ec554-d6b7-4861-ac38-83e1454ac2fd,1,,0.0,0.0,POINT (0.0 0.0),3054953,2022-03-02 14:46:52 UTC,2022-01-11 13:35:48 UTC,,,,,,,,,,,Apple,iPhone 12 Pro Max,,4032.0,3024.0,15.1.1,72.0,72.0
f0a686d1-2a23-4667-942d-22213cf96e4a,dbbd6e8d-06e6-4bc2-8332-672ef75d7d86,dbbd6e8d-06e6-4bc2-8332-672ef75d7d86,1,,44.38893611111111,-71.17741388888889,POINT (-71.17741388888889 44.38893611111111),382255,2022-03-02 23:13:28 UTC,2022-03-02 18:06:39 UTC,246.48341359015515,,,4.589886584372454,203.78332501248127,T,44.38893611111111,N,-71.17741388888889,W,Apple,iPhone 12 mini,,810.0,1080.0,"Fulcrum iOS 3.0.9 (6901), iOS 15.3.1, Apple, Unknown Device",72.0,72.0
7d022c9a-2872-4104-a841-7b53d55d610c,cfaaa8b2-08b1-40a5-b95b-321860f7d099,cfaaa8b2-08b1-40a5-b95b-321860f7d099,1,,0.0,0.0,POINT (0.0 0.0),3470916,2022-03-25 03:13:15 UTC,2021-09-22 18:56:19 UTC,,,,,,,,,,,Apple,iPhone 12 Pro Max,,4032.0,3024.0,14.8,72.0,72.0
